Read CSV Duplicate — sample_read • myrpackage
…
    Value

    a tibble

    Examples

csv=system.file("esri", "esri.csv", package="myrpackage")
sample_read(csv)
#> Parsed with column specification:
#> cols(
#>   x = col_double(),
#>   y = col_double()
#> )
#> # A tibble: 100 x 2
#>          x       y
#>      <dbl>   <dbl>
#>  1 -0.502  -1.48  
#>  2  0.132   0.0379
#>  3 -0.0789  0.616 
#>  4  0.887   3.17  
#>  5  0.117   1.37  
#>  6  0.319  -0.0656
#>  7 -0.582  -2.31  
#>  8  0.715   1.13  
#>  9 -0.825  -5.50  
#> 10 -0.360  -0.747 
#> # … with 90 more rows
…
